{
  "prompt_text": "Concrete pavement, dirty, highly-detailed, realistic",
  "patch": {
    "ext": "png",
    "dtype": "uint8",
    "width": 512,
    "height": 512,
    "url": "https://static-dev.withpoly.com/v3-voronoi/textures/patches/01b1f20c-11cf-4675-b1f4-02d261aee807.png",
    "patch_id": "eBCcD5ejsp"
  },
  "seamless_prompt_text": "Concrete pavement, dirty, highly-detailed, realistic",
  "seamless_patch_scale": 0.8,
  "upscale_prompt_text": "Concrete pavement, dirty, highly-detailed, realistic",
  "upscale_resolution": 4096,
  "is_seamless": true,
  "pbr_mode": "general",
  "pbr_generate_color": true,
  "pbr_generate_normal": true,
  "pbr_generate_height": true,
  "pbr_generate_ao": true,
  "pbr_generate_roughness": true,
  "pbr_generate_metallic": false
}